{
    "Server": {
        "port": 3000
    },

    "Security": {
        "login_days": 7
    },

    "PouchDB": {
        "url": "http://localhost:5984/nova-unlimited",
        "debug": true
    },

    "Admin": {
        "username": "admin",
        "password": "nimda"
    },

    "LoadGalaxy": {
        "_id": "dev-galaxy"
    },

    "DefaultGalaxyParams": {
    }
}

